<?xml version="1.0" encoding="utf-8"?>
<!-- Generator: Adobe Illustrator 17.0.0, SVG Export Plug-In . SVG Version: 6.00 Build 0)  -->
<!DOCTYPE svg PUBLIC "-//W3C//DTD SVG 1.1//EN" "http://www.w3.org/Graphics/SVG/1.1/DTD/svg11.dtd">
<svg version="1.1" id="Layer_1" xmlns="http://www.w3.org/2000/svg" xmlns:xlink="http://www.w3.org/1999/xlink" x="0px" y="0px"
	 width="110px" height="59.5px" viewBox="40.5 0 110 59.5" enable-background="new 40.5 0 110 59.5" xml:space="preserve">
<g id="Layer_2" display="none">
	<rect x="-42.333" y="-25.667" display="inline" fill="#BE1E2D" width="268" height="240.333"/>
	<image display="inline" overflow="visible" enable-background="new    " width="192" height="192" xlink:href="splash.png" >
	</image>
</g>
<g id="Layer_1_1_">
	<g>
		<path fill="#E02828" d="M67.41,36.187c0,1.147-0.268,2.167-0.803,3.06c-0.535,0.894-1.23,1.64-2.086,2.24
			c-0.854,0.6-1.816,1.054-2.885,1.36c-1.07,0.306-2.125,0.46-3.168,0.46c-1.764,0-3.388-0.327-4.871-0.98
			c-1.484-0.653-2.786-1.7-3.909-3.14l3.48-3.52c0.693,0.88,1.493,1.567,2.4,2.06c0.906,0.494,1.88,0.74,2.921,0.74
			c0.906,0,1.658-0.166,2.26-0.5c0.6-0.333,0.898-0.833,0.898-1.5c0-0.693-0.426-1.273-1.279-1.74
			c-0.854-0.466-2.053-0.926-3.6-1.38c-0.907-0.267-1.787-0.606-2.64-1.02c-0.854-0.413-1.614-0.92-2.28-1.52s-1.2-1.287-1.6-2.06
			c-0.4-0.773-0.6-1.667-0.6-2.68c0-1.12,0.261-2.126,0.782-3.02c0.521-0.893,1.203-1.64,2.044-2.24s1.797-1.06,2.867-1.38
			c1.069-0.32,2.152-0.48,3.248-0.48c3.527,0,6.414,1.334,8.66,4l-3.441,3.48c-0.666-0.826-1.426-1.48-2.279-1.96
			s-1.787-0.72-2.801-0.72c-0.346,0-0.713,0.047-1.1,0.14c-0.386,0.094-0.747,0.227-1.08,0.4c-0.334,0.174-0.607,0.4-0.82,0.68
			c-0.214,0.28-0.32,0.594-0.32,0.94c0,0.613,0.406,1.146,1.22,1.6c0.813,0.454,1.98,0.907,3.5,1.36
			c0.986,0.293,1.92,0.667,2.801,1.12c0.879,0.454,1.652,0.98,2.32,1.58c0.666,0.6,1.193,1.28,1.58,2.04
			C67.215,34.367,67.41,35.227,67.41,36.187z"/>
		<path fill="#E02828" d="M92.009,42.667h-5.761v-13.8c0-0.827-0.127-1.553-0.382-2.18c-0.254-0.626-0.596-1.146-1.024-1.56
			c-0.429-0.413-0.917-0.72-1.466-0.92s-1.118-0.3-1.707-0.3c-0.884,0-1.754,0.153-2.611,0.46c-0.856,0.307-1.633,0.793-2.329,1.46
			v16.84h-5.76v-23.12h5.76l0.04,1.72c0.346-0.346,0.772-0.667,1.28-0.96c0.506-0.293,1.032-0.54,1.579-0.74
			c0.547-0.2,1.106-0.353,1.681-0.46c0.573-0.106,1.126-0.16,1.66-0.16c1.173,0,2.3,0.187,3.38,0.56
			c1.08,0.374,2.04,0.947,2.88,1.72c0.84,0.774,1.513,1.774,2.02,3c0.507,1.227,0.761,2.68,0.761,4.36L92.009,42.667L92.009,42.667z
			"/>
		<path fill="#E02828" d="M115.168,42.667h-5.76v-1.24c-1.014,0.694-2.087,1.174-3.221,1.44s-2.3,0.4-3.5,0.4
			c-1.12,0-2.134-0.167-3.04-0.5s-1.693-0.813-2.359-1.44c-0.667-0.626-1.181-1.366-1.54-2.22c-0.36-0.853-0.54-1.8-0.54-2.84
			c0-1.306,0.286-2.446,0.859-3.42c0.573-0.973,1.354-1.787,2.341-2.44c0.986-0.653,2.14-1.14,3.46-1.46
			c1.319-0.32,2.739-0.48,4.26-0.48h3.32c0-1.36-0.44-2.44-1.32-3.24s-2.147-1.2-3.8-1.2c-0.801,0-1.627,0.147-2.48,0.44
			c-0.854,0.294-1.707,0.827-2.56,1.6l-3.4-3.44c1.227-1.173,2.646-2.08,4.26-2.72c1.613-0.64,3.273-0.96,4.98-0.96
			c1.6,0,3.024,0.254,4.273,0.76c1.249,0.507,2.258,1.16,3.025,1.96c1.007,1.014,1.715,2.147,2.125,3.4
			c0.41,1.254,0.616,2.854,0.616,4.8L115.168,42.667L115.168,42.667z M109.408,36.907v-4.28h-2.641c-0.8,0-1.554,0.054-2.26,0.16
			c-0.707,0.107-1.32,0.287-1.84,0.54c-0.521,0.253-0.934,0.58-1.24,0.98s-0.46,0.88-0.46,1.44c0,0.8,0.313,1.454,0.94,1.96
			c0.626,0.507,1.433,0.76,2.42,0.76c0.853,0,1.699-0.133,2.54-0.4C107.708,37.8,108.554,37.414,109.408,36.907z"/>
		<path fill="#E02828" d="M141.848,31.146c0,1.627-0.274,3.174-0.821,4.64c-0.549,1.467-1.317,2.753-2.306,3.86
			c-0.989,1.107-2.166,1.987-3.529,2.64s-2.86,0.98-4.49,0.98c-1.017,0-1.965-0.14-2.847-0.42c-0.883-0.28-1.712-0.727-2.486-1.34
			l0.04,11.2h-5.8v-33.2h5.8l0.04,1.2c0.666-0.533,1.46-0.96,2.38-1.28c0.92-0.32,1.886-0.48,2.899-0.48
			c1.414,0,2.787,0.314,4.12,0.94s2.521,1.487,3.561,2.58c1.04,1.094,1.873,2.38,2.5,3.86
			C141.534,27.807,141.848,29.414,141.848,31.146z M135.968,31.187c0-1.093-0.16-2.08-0.481-2.96s-0.771-1.633-1.345-2.26
			c-0.576-0.626-1.259-1.106-2.049-1.44c-0.79-0.333-1.666-0.5-2.629-0.5c-0.616,0-1.319,0.127-2.108,0.38
			c-0.79,0.253-1.452,0.594-1.987,1.02v11.08c1.258,1.147,2.663,1.72,4.216,1.72c0.909,0,1.76-0.173,2.55-0.52
			c0.789-0.346,1.465-0.833,2.027-1.46c0.562-0.626,1.004-1.373,1.325-2.24S135.968,32.2,135.968,31.187z"/>
	</g>
</g>
</svg>
